"Humerus";"Status";"StatusId"
659;"Perished";0
689;"Perished";0
703;"Perished";0
702;"Perished";0
709;"Perished";0
713;"Perished";0
720;"Perished";0
729;"Perished";0
726;"Perished";0
726;"Perished";0
720;"Perished";0
737;"Perished";0
739;"Perished";0
731;"Perished";0
738;"Perished";0
736;"Perished";0
738;"Perished";0
744;"Perished";0
745;"Perished";0
743;"Perished";0
754;"Perished";0
752;"Perished";0
752;"Perished";0
765;"Perished";0
687;"Survived";1
703;"Survived";1
709;"Survived";1
715;"Survived";1
728;"Survived";1
721;"Survived";1
729;"Survived";1
723;"Survived";1
728;"Survived";1
723;"Survived";1
726;"Survived";1
728;"Survived";1
736;"Survived";1
733;"Survived";1
730;"Survived";1
733;"Survived";1
730;"Survived";1
739;"Survived";1
735;"Survived";1
741;"Survived";1
741;"Survived";1
749;"Survived";1
741;"Survived";1
743;"Survived";1
741;"Survived";1
752;"Survived";1
752;"Survived";1
751;"Survived";1
756;"Survived";1
755;"Survived";1
766;"Survived";1
767;"Survived";1
769;"Survived";1
770;"Survived";1
780;"Survived";1
